// Jest Snapshot v1, https://goo.gl/fbAQLP

exports[`UserDetails matches snapshot 1`] = `
<div
  className="user"
  onClick={[Function]}
>
  <div
    className="user-image"
  >
    <img
      alt=""
      src="https://randomuser.me/api/portraits/thumb/women/87.jpg"
    />
  </div>
  <div
    className="user-details"
  >
    <div
      className="user-name"
    >
      Mrs
       
      Kristin
       
      Washington
    </div>
    <div
      className="user-email"
    >
      kristin.washington@example.com
    </div>
  </div>
</div>
`;
